0,0.0
5,0.006446886446886447
10,0.0
15,0.0
20,0.0
24,0.0
30,0.0
35,0.0
40,0.0
44,0.0
49,0.0
55,0.0
60,0.0
65,0.0
70,0.0
74,0.0
80,0.0
85,0.0
89,0.0
95,0.0
99,0.0
105,0.0
110,0.0
114,0.0
120,0.0
125,0.0
130,0.0
134,0.0
140,0.0
145,0.0
149,0.0
155,0.0
160,0.0
164,0.0
170,0.0
175,0.0
179,0.0
185,0.0
190,0.0
195,0.0
199,0.0
205,0.0
210,0.0
214,0.0
220,0.0
225,0.0
229,0.0
235,0.0
240,0.0
244,0.0
250,0.0
255,0.0
260,0.0
265,0.0
269,0.0
275,0.0
280,0.0
285,0.0
290,0.0
295,0.0
299,0.0
305,0.0
310,0.0
315,0.0
320,0.0
325,0.0
329,0.004835164835164835
334,0.0
340,0.0
345,0.0
350,0.0
355,0.0
359,0.0
364,0.0
370,0.0
375,0.0
380,0.0
385,0.0
390,0.0
394,0.0
399,0.0
405,0.0
410,0.0
415,0.0
420,0.0
424,0.0
429,0.0
435,0.0
440,0.0
445,0.0
450,0.0
454,0.0
459,0.0
465,0.0
470,0.0
475,0.0
480,0.0
484,0.0
489,0.0024175824175824176
494,0.0
500,0.0
505,0.0
510,0.0
515,0.0
520,0.0
525,0.0
530,0.0
534,0.0
539,0.0
545,0.0
550,0.0
555,0.0
560,0.0
565,0.0
570,0.0
575,0.0
580,0.0
585,0.0
590,0.0
594,0.0
599,0.0
604,0.0
610,0.0
615,0.0
620,0.0
625,0.0
630,0.0
635,0.0
640,0.0
645,0.0008058608058608059
650,0.0
655,0.0
659,0.0
664,0.0
669,0.0136996336996337
675,0.0
680,0.0
685,0.0
690,0.0
695,0.0
700,0.0
705,0.0
710,0.0
715,0.0
719,0.0
724,0.0016117216117216117
729,0.0
734,0.0
740,0.0
745,0.0
750,0.0016117216117216117
755,0.0
760,0.0
765,0.0
770,0.0
775,0.0
780,0.0
784,0.0
789,0.0
794,0.0
799,0.0
805,0.0
810,0.0
815,0.0
820,0.0
825,0.0
830,0.0056410256410256415
835,0.0
840,0.0
844,0.0
849,0.0
854,0.0
859,0.004029304029304029
865,0.0
870,0.0
875,0.0
880,0.0
885,0.0
890,0.0
895,0.0
900,0.0
905,0.0
909,0.0
914,0.0
919,0.0
924,0.0
930,0.0
935,0.0
940,0.0
945,0.0
950,0.0
955,0.0
960,0.0
965,0.0
969,0.0
974,0.0
979,0.0
984,0.0
989,0.0
995,0.0
1000,0.0
1005,0.0
1010,0.0
1015,0.0
1020,0.0
1025,0.0
1030,0.0
1035,0.0
1040,0.011282051282051283
1045,0.0
1050,0.0
1055,0.0
1060,0.0
1064,0.0
1069,0.0
1074,0.0
1079,0.0
1084,0.0
1090,0.0
1095,0.0
1100,0.0
1105,0.0
1110,0.0
1115,0.0
1120,0.0
1125,0.0
1130,0.0
1135,0.0
1140,0.0
1145,0.004029304029304029
1150,0.0
1155,0.0
1160,0.0
1165,0.0
1170,0.0
1175,0.0
1180,0.0
1185,0.0
1189,0.0
1194,0.0
1199,0.0
1204,0.0
1209,0.0
1214,0.0
1220,0.0016117216117216117
1225,0.0
1230,0.0
1235,0.0
1240,0.0
1245,0.0
1250,0.0
1255,0.0
1260,0.0
1265,0.0
1270,0.0
1275,0.0
1280,0.0
1285,0.0
1290,0.0
1295,0.0
1300,0.0
1305,0.0
1310,0.0
1314,0.0
1319,0.0
1324,0.0
1329,0.0
1334,0.0
1339,0.0
1345,0.0
1350,0.0
1355,0.0
1360,0.0
1365,0.0
1370,0.0
1375,0.0
1380,0.0
1385,0.0
1390,0.0
1395,0.0
1400,0.0
1405,0.0016117216117216117
1410,0.0
1415,0.0
1420,0.0
1425,0.0
1430,0.0
1435,0.0
1439,0.0
1444,0.0
1449,0.0
1454,0.0
1459,0.0
1464,0.0
1469,0.0
1475,0.0
1480,0.0
1485,0.0
1490,0.0
1495,0.008058608058608058
1500,0.0
1505,0.0
1510,0.0
1515,0.0
1520,0.0
1525,0.0
1530,0.0
1535,0.0
1540,0.0
1545,0.0
1550,0.0
1555,0.0
1560,0.0
1564,0.0
1569,0.0024175824175824176
1574,0.0
1579,0.0
1584,0.0
1589,0.0
1594,0.006446886446886447
1599,0.0
1605,0.0
1610,0.0
1615,0.0
1620,0.0
1625,0.0
1630,0.0
1635,0.0
1640,0.0
1645,0.0
1650,0.0
1655,0.0
1660,0.0
1665,0.0
1670,0.0
1675,0.0
1680,0.0
1685,0.0
1689,0.0
1694,0.0
1699,0.0
1704,0.0032234432234432234
1709,0.0
1714,0.0
1719,0.0
1724,0.0
1730,0.0
1735,0.0
1740,0.0
1745,0.0
1750,0.0
1755,0.0
1760,0.0
1765,0.0
1770,0.0
1775,0.0
1780,0.0
1785,0.0
1790,0.0
1795,0.0
1800,0.0
1805,0.0
1810,0.0
1814,0.0
1819,0.0
1824,0.0
1829,0.0
1834,0.0
1839,0.0
1844,0.0
1849,0.0
1854,0.0
1860,0.0
1865,0.0
1870,0.0
1875,0.0
1880,0.0
1885,0.0
1890,0.0
1895,0.0
1900,0.0
1905,0.0
1910,0.0
1915,0.0
1920,0.0
1925,0.0
1930,0.0
1935,0.0
1939,0.0
1944,0.0
1949,0.0
1954,0.0
1959,0.0
1964,0.0
1969,0.0
1974,0.0
1979,0.0
1985,0.0
1990,0.0
1995,0.0
2000,0.0
2004,0.0
2010,0.0
2014,0.0
2020,0.0
2024,0.0
2030,0.0
2034,0.0
2040,0.0
2044,0.0
2050,0.0
2055,0.0
2060,0.0
2065,0.0
2070,0.010476190476190476
2075,0.0
2080,0.0
2085,0.0
2090,0.0
2095,0.0024175824175824176
2100,0.0
2105,0.0
2110,0.0
2115,0.0
2120,0.0
2125,0.0
2129,0.0
2135,0.0
2139,0.0
2145,0.0
2149,0.0
2155,0.0
2159,0.0
2165,0.0
2169,0.00967032967032967
2175,0.0
2180,0.0
2185,0.0
2190,0.0
2195,0.0
2200,0.0
2205,0.0
2210,0.0
2215,0.0
2220,0.0
2225,0.0
2230,0.0
2235,0.0
2240,0.0
2245,0.0
2250,0.0016117216117216117
2254,0.0
2260,0.0
2264,0.0
2270,0.0
2274,0.0
2280,0.0
2284,0.0
2290,0.0
2294,0.0
2300,0.0
2305,0.0
2310,0.0
2315,0.0
2320,0.0
2325,0.0
2330,0.0
2335,0.0
2340,0.0
2345,0.0
2350,0.0
2355,0.0
2360,0.0
2365,0.0
2370,0.0
2375,0.0
2379,0.0
2385,0.0032234432234432234
2389,0.0
2395,0.0
2399,0.0
2405,0.0
2409,0.0
2415,0.0
2419,0.0
2425,0.0
2429,0.0
2435,0.0
2440,0.0
2445,0.0
2450,0.0
2455,0.0
2460,0.0
2465,0.0
2470,0.0
2475,0.0
2480,0.0
2485,0.0
2490,0.0
2495,0.0
2500,0.0
2504,0.0
2510,0.0
2514,0.0
2520,0.0
2524,0.0
2530,0.0
2534,0.0
2540,0.0024175824175824176
2544,0.0
2550,0.0
2554,0.0
2560,0.0
2565,0.0
2570,0.0
2575,0.0
2580,0.0
2585,0.0
2590,0.0
2595,0.0
2600,0.0
2605,0.0
2610,0.0
2615,0.0
2620,0.0032234432234432234
2625,0.0
2629,0.0
2635,0.0
2639,0.0
2645,0.0
2649,0.0
2655,0.0
2659,0.0
2665,0.0
2669,0.0016117216117216117
2675,0.0
2679,0.0
2685,0.0
2690,0.0
2695,0.0
2700,0.0
2705,0.0
2710,0.0
2715,0.0
2720,0.0
2725,0.0
2730,0.0
2735,0.0
2740,0.0
2745,0.0
2750,0.0
2754,0.0
2760,0.0
2764,0.0
2770,0.0
2774,0.0
2780,0.0
2784,0.0
2790,0.0
2794,0.0
2800,0.0
2804,0.0
2810,0.0
2814,0.0
2820,0.0
2825,0.0
2830,0.0
2835,0.0
2840,0.0
2845,0.0
2850,0.0
2855,0.0024175824175824176
2860,0.0
2865,0.0
2870,0.0
2875,0.0
2879,0.0008058608058608059
2885,0.0
2889,0.0
2895,0.0
2899,0.0
2905,0.0
2909,0.0
2915,0.0
2919,0.0
2925,0.0
2929,0.0
2935,0.0
2939,0.0
2945,0.0
2950,0.0
2955,0.0
2960,0.0
2965,0.0
2970,0.0
2975,0.0
2980,0.0
2985,0.012087912087912088
2990,0.0
2995,0.0
3000,0.0
3004,0.0
3010,0.0
3014,0.0
3020,0.0
3024,0.0
3030,0.0
3034,0.0
3040,0.0
3044,0.0
3050,0.0
3054,0.0
3060,0.0
3064,0.0
3070,0.0
3075,0.0
3080,0.0
3085,0.0
3090,0.0
3095,0.0
3100,0.0
3105,0.0
3110,0.0
3115,0.0
3120,0.0
3125,0.0
3129,0.0
3135,0.0
3139,0.0008058608058608059
3145,0.0
3149,0.0
3155,0.0
3159,0.0
3165,0.0056410256410256415
3169,0.0
3175,0.0
3179,0.0
3185,0.0
3189,0.0
3195,0.0
3199,0.0
3205,0.0
3210,0.0
3215,0.0
3220,0.0
3225,0.0
3230,0.0
3235,0.0
3240,0.0
3245,0.0
3250,0.0
3254,0.0
3260,0.0
3264,0.0
3270,0.0
3274,0.0
3280,0.0
3284,0.0
3290,0.0
3294,0.0
3300,0.0
3304,0.0
3310,0.0
3314,0.0
3320,0.0
3324,0.0
3330,0.0
3335,0.0
3340,0.0
3345,0.0
3350,0.0
3355,0.0024175824175824176
3360,0.0
3365,0.0
3370,0.0
3375,0.0
3379,0.0
3385,0.0
3389,0.0
3395,0.0
3399,0.0
3405,0.0
3409,0.0
3415,0.0
3419,0.0
3425,0.0
3429,0.0
3435,0.0008058608058608059
3439,0.0
3445,0.0
3449,0.0
3455,0.0
3460,0.0
3465,0.0
3470,0.0
3475,0.0
3480,0.0
3485,0.0
3490,0.0
3495,0.0
3500,0.0
3504,0.0
3510,0.0
3514,0.0
3520,0.0
3524,0.0
3530,0.0
3534,0.0
3540,0.0
3544,0.0
3550,0.0
3554,0.0
3560,0.0
3564,0.0056410256410256415
3570,0.0
3574,0.0
3580,0.0
3585,0.0
3590,0.0
3595,0.0
3600,0.0
3605,0.0
3610,0.0
3615,0.0
3620,0.0
3625,0.0
3629,0.0
3635,0.0
3639,0.0
3645,0.0
3649,0.0
3655,0.0
3659,0.0
3665,0.0
3669,0.0
3675,0.0
3679,0.0
3685,0.0
3689,0.0
3695,0.0
3699,0.0
3705,0.0
3709,0.0
3715,0.0
3720,0.0
3725,0.0
3730,0.0
3735,0.0
3740,0.0
3745,0.0
3750,0.0
3754,0.0
3760,0.0
3764,0.0
3770,0.0
3774,0.0
3780,0.0
3784,0.0
3790,0.0
3794,0.0
3800,0.0
3804,0.0
3810,0.0
3814,0.0
3820,0.0
3824,0.0
3830,0.0
3834,0.0
3840,0.0
3845,0.0
3850,0.0
3855,0.0
3860,0.0
3865,0.0
3870,0.0
3875,0.0
3879,0.0
3885,0.0
3889,0.0
3895,0.0
3899,0.0
3905,0.0024175824175824176
3909,0.0
3915,0.0
3919,0.0
3925,0.0
3929,0.0
3935,0.0
3939,0.0
3945,0.0
3949,0.0
3955,0.0
3959,0.0
3965,0.0
3970,0.0
3975,0.0
3980,0.0
3985,0.0
3990,0.0
3995,0.0
4000,0.0
4005,0.0
4009,0.0
4014,0.0
4020,0.0
4025,0.0
4029,0.0
4034,0.0056410256410256415
4040,0.0
4045,0.0
4049,0.0
4054,0.0
4060,0.0
4065,0.0
4069,0.0
4074,0.0
4080,0.0
4085,0.0
4089,0.0
4094,0.0
4100,0.0
4105,0.0
4110,0.0
4115,0.0
4120,0.0
4125,0.0
4130,0.0
4134,0.0
4140,0.0
4145,0.0
4150,0.0
4154,0.0
4160,0.0
4165,0.0
4170,0.0
4174,0.0
4180,0.0
4185,0.0
4190,0.0
4194,0.0
4200,0.0
4205,0.0
4210,0.0
4214,0.0
4220,0.0
4225,0.0
4230,0.0
4235,0.0
4240,0.0
4245,0.0
4250,0.0
4255,0.0
4259,0.0
4265,0.0
4270,0.0
4275,0.0
4279,0.0
4285,0.0
4290,0.0
4295,0.0
4299,0.0
4305,0.0
4310,0.0
4315,0.0
4319,0.0
4325,0.0
4330,0.0
4335,0.0
4339,0.0
4345,0.0
4350,0.0
4355,0.0
4360,0.0
4365,0.0
4370,0.0
4375,0.0
4380,0.0
4384,0.004029304029304029
4390,0.0
4395,0.0
4400,0.0
4404,0.0
4410,0.0
4415,0.0
4420,0.0
4424,0.0
4430,0.0
4435,0.0
4440,0.0
4444,0.0
4450,0.0
4455,0.0
4460,0.016923076923076923
4464,0.0
4470,0.0
4475,0.0
4480,0.0
4485,0.0
4490,0.0
4495,0.0
4500,0.0
4505,0.0
4509,0.0
4515,0.0
4520,0.0
4525,0.0
4529,0.0
4535,0.0
4540,0.0
4545,0.0
4549,0.0
4555,0.0
4560,0.0
4565,0.0
4569,0.0
4575,0.0
4580,0.0
4585,0.0
4589,0.0
4595,0.0
4600,0.0
4605,0.0
4610,0.0
4615,0.012893772893772894
4620,0.0
4625,0.0
4630,0.0
4634,0.0
4640,0.0
4645,0.0
4650,0.0
4654,0.0
4660,0.0
4665,0.0
4670,0.0
4674,0.0
4680,0.0
4685,0.0
4690,0.0
4694,0.0
4700,0.0
4705,0.0
4710,0.0
4714,0.0
4720,0.0
4725,0.0
4730,0.0
4734,0.0
4740,0.0
4745,0.0016117216117216117
4750,0.0
4755,0.0
4759,0.0
4765,0.0
4770,0.0
4775,0.0
4779,0.0
4785,0.0
4790,0.0
4795,0.0
4799,0.0
4805,0.0
4810,0.0
4815,0.0
4819,0.0
4825,0.0
4830,0.0
4835,0.0
4839,0.0
4845,0.0
4850,0.0
4855,0.0
4859,0.0
4865,0.0
4870,0.0
4875,0.0
4880,0.0
4884,0.0
4890,0.0
4895,0.0
4900,0.0
4904,0.0024175824175824176
4910,0.0
4915,0.0
4920,0.0
4924,0.0
4930,0.0
4935,0.0
4940,0.0
4944,0.0
4950,0.0
4955,0.0
4960,0.0
4964,0.0
4970,0.0
4975,0.0
4980,0.0
4984,0.016117216117216115
4990,0.0
4995,0.0
